{
  "version": 1,
  "license": "CC-BY-SA-3.0",
  "copyright": "Taken from cev-eris at https://github.com/discordia-space/CEV-Eris/raw/167a810bc8534a56c74ffa8f1373acd3b1ac70ee/icons/obj/guns/energy/xray.dmi, backpack sprite by peptide, backpack sling sprite edited by Boaz1111",
  "size": {
    "x": 32,
    "y": 32
  },
  "states": [
    {
      "name": "icon"
    },
    {
      "name": "base"
    },
    {
      "name": "mag-unshaded-0",
      "delays": [
        [
          0.3,
          0.3
        ]
      ]
    },
    {
      "name": "mag-unshaded-1"
    },
    {
      "name": "mag-unshaded-2"
    },
    {
      "name": "mag-unshaded-3"
    },
    {
      "name": "mag-unshaded-4"
    },
    {
      "name": "inhand-left",
      "directions": 4
    },
    {
      "name": "inhand-right",
      "directions": 4
    },
    {
      "name": "equipped-BACKPACK",
      "directions": 4
    },
    {
        "name": "equipped-SUITSTORAGE",
        "directions": 4
    }
  ]
}
